{
  "schemaVersion": 2, 
  "coreAttributes": {
      "registerSize": 32, 
      "addressSize": 32, 
      "family": "ARM", 
      "bigEndian": false
  }, 
  "memoryRegions": [
    {
      "id": "ram", 
      "label": "RAM", 
      "desc": "Memory modifiable from programs", 
      "space": "C", 
      "addr": "0x20000000", 
      "size": "0x8000"
    }, 
    {
      "id": "flash", 
      "label": "Flash Memory", 
      "desc": "Memory containing code and data only modifiable by flash programming", 
      "space": "C", 
      "addr": "0x000000000", 
      "size": "0x40000"
    }
  ]
}
